"age" "height" "sex"
"Hannah" 22 0.000168 "f"
"Leon" 25 0.000167 "m"
"Lukas" 20 0.000187 "m"
"Leonie" 24 0.000165 "f"
"Luka" 20 0.00019 "m"
"Lea" 22 0.000176 "f"
"Lena" 24 0.000167 "f"
"Mia" 21 0.000156 "f"
"Tim" 19 0.000181 "m"
"Fynn" 24 0.000165 "m"
"Anna" 25 0.000167 "f"
"Emily" 21 0.000171 "f"
"Felix" 18 0.000154 "m"
"Martin" NA NA "m"
